…
## Data analyzing

#### See how many disasters happened for recent years for each state

``` r
disaster_yearly_by_state <- clean_disasters_by_states %>%
  select(state,event_year,incident_type) %>%
  arrange(state,desc(event_year)) %>%
  pivot_wider(names_from = event_year,values_from =   #Making year as column header 
              incident_type,values_fn =   
                list(incident_type=length))          
print(disaster_yearly_by_state)
```

    ## # A tibble: 56 × 8
    ##    state `2021` `2019` `2018` `2016` `2020` `2017` `2015`
    ##    <chr>  <int>  <int>  <int>  <int>  <int>  <int>  <int>
    ##  1 AK         1      1      3      2     NA     NA     NA
    ##  2 AL         2      3      2      1      4     NA     NA
    ##  3 AR        NA      2     NA      2      2      1      1
    ##  4 AS        NA     NA      1     NA     NA     NA     NA
    ##  5 AZ         1      2      1     NA     NA     NA      1
    ##  6 CA         3      6      3     NA      1      5      2
    ##  7 CO         1     NA     NA     NA     NA     NA      1
    ##  8 CT         1      1      1     NA     NA     NA      1
    ##  9 DC        NA     NA     NA      1     NA     NA     NA
    ## 10 DE         1     NA     NA      1     NA     NA     NA
    ## # … with 46 more rows

#### Figure out which states have the highest disaster count

``` r
highest_disaster_count_by_state <- clean_disasters_by_states %>% 
  group_by(state) %>% 
  summarise(disasters_count = n()) %>%  
  arrange(desc(disasters_count))   
highest_disaster_count_by_state
```

    ## # A tibble: 56 × 2
    ##    state disasters_count
    ##    <chr>           <int>
    ##  1 CA                 20
    ##  2 MS                 16
    ##  3 LA                 14
    ##  4 OK                 13
    ##  5 TX                 13
    ##  6 AL                 12
    ##  7 WV                 12
    ##  8 KY                 11
    ##  9 TN                 11
    ## 10 IA                 10
    ## # … with 46 more rows
…
``` r
frequent_disaster_type_by_states <- clean_disasters_by_states %>% 
  group_by(state,incident_type) %>% 
  summarise(n = n()) %>% 
  pivot_wider(names_from = incident_type,values_from = n)   #Making disaster type as header
```

    ## `summarise()` has grouped output by 'state'. You can override using the `.groups` argument.

``` r
frequent_disaster_type_by_states
```

    ## # A tibble: 56 × 15
    ## # Groups:   state [56]
    ##    state `Coastal Storm` Earthquake Flood `Mud/Landslide` `Severe Storm(s)`
    ##    <chr>           <int>      <int> <int>           <int>             <int>
    ##  1 AK                  2          1     1               1                 2
    ##  2 AL                 NA         NA    NA              NA                 7
    ##  3 AR                 NA         NA     2              NA                 4
    ##  4 AS                 NA         NA    NA              NA                NA
    ##  5 AZ                 NA         NA     3              NA                 2
    ##  6 CA                 NA         NA     3              NA                 8
    ##  7 CO                 NA         NA     1              NA                NA
    ##  8 CT                 NA         NA    NA              NA                 2
    ##  9 DC                 NA         NA    NA              NA                NA
    ## 10 DE                 NA         NA    NA              NA                NA
    ## # … with 46 more rows, and 9 more variables: Hurricane <int>, Tornado <int>,
    ## #   Fire <int>, Snow <int>, Severe Ice Storm <int>, Typhoon <int>,
    ## #   Volcano <int>, Dam/Levee Break <int>, Other <int>
…
